…
    Rows: 36 Columns: 25
    ── Column specification ────────────────────────────────────────────────────────
    Delimiter: ","
    chr (25): StartDate, EndDate, Status, Progress, Duration (in seconds), Finis...

    ℹ Use `spec()` to retrieve the full column specification for this data.
    ℹ Specify the column types or set `show_col_types = FALSE` to quiet this message.

``` r
print(Colloquium_Assessment)
```

    # A tibble: 36 × 25
       StartDate             EndDate Status Progress Duration (in seconds…¹ Finished
       <chr>                 <chr>   <chr>  <chr>    <chr>                  <chr>   
     1  <NA>                  <NA>    <NA>   <NA>     <NA>                   <NA>   
     2 "Start Date"          "End D… "Resp… "Progre… "Duration (in seconds… "Finish…
     3  <NA>                  <NA>    <NA>   <NA>     <NA>                   <NA>   
     4 "{\"ImportId\":\"sta… "{\"Im… "{\"I… "{\"Imp… "{\"ImportId\":\"dura… "{\"Imp…
     5  <NA>                  <NA>    <NA>   <NA>     <NA>                   <NA>   
     6 "11/11/22 9:01"       "11/11… "0"    "100"    "18"                   "1"     
     7  <NA>                  <NA>    <NA>   <NA>     <NA>                   <NA>   
     8 "11/11/22 9:02"       "11/11… "0"    "100"    "31"                   "1"     
     9  <NA>                  <NA>    <NA>   <NA>     <NA>                   <NA>   
    10 "11/11/22 9:03"       "11/11… "0"    "100"    "109"                  "1"     
    # ℹ 26 more rows
    # ℹ abbreviated name: ¹​`Duration (in seconds)`
    # ℹ 19 more variables: RecordedDate <chr>, ResponseId <chr>,
    #   RecipientLastName <chr>, RecipientFirstName <chr>, RecipientEmail <chr>,
    #   ExternalReference <chr>, LocationLatitude <chr>, LocationLongitude <chr>,
    #   DistributionChannel <chr>, UserLanguage <chr>, Q4 <chr>, Q5 <chr>,
    #   Q6 <chr>, Q7 <chr>, Q8 <chr>, Q9 <chr>, Q10 <chr>, Q11 <chr>, Q12 <chr>

First, I’m going to go ahead and clean-up the names of the columns.

``` r
Colloquium_Assessment_clean <- Colloquium_Assessment |> janitor::clean_names()
Colloquium_Assessment
```

    # A tibble: 36 × 25
       StartDate             EndDate Status Progress Duration (in seconds…¹ Finished
       <chr>                 <chr>   <chr>  <chr>    <chr>                  <chr>   
     1  <NA>                  <NA>    <NA>   <NA>     <NA>                   <NA>   
     2 "Start Date"          "End D… "Resp… "Progre… "Duration (in seconds… "Finish…
     3  <NA>                  <NA>    <NA>   <NA>     <NA>                   <NA>   
     4 "{\"ImportId\":\"sta… "{\"Im… "{\"I… "{\"Imp… "{\"ImportId\":\"dura… "{\"Imp…
     5  <NA>                  <NA>    <NA>   <NA>     <NA>                   <NA>   
     6 "11/11/22 9:01"       "11/11… "0"    "100"    "18"                   "1"     
     7  <NA>                  <NA>    <NA>   <NA>     <NA>                   <NA>   
     8 "11/11/22 9:02"       "11/11… "0"    "100"    "31"                   "1"     
     9  <NA>                  <NA>    <NA>   <NA>     <NA>                   <NA>   
    10 "11/11/22 9:03"       "11/11… "0"    "100"    "109"                  "1"     
    # ℹ 26 more rows
    # ℹ abbreviated name: ¹​`Duration (in seconds)`
    # ℹ 19 more variables: RecordedDate <chr>, ResponseId <chr>,
    #   RecipientLastName <chr>, RecipientFirstName <chr>, RecipientEmail <chr>,
    #   ExternalReference <chr>, LocationLatitude <chr>, LocationLongitude <chr>,
    #   DistributionChannel <chr>, UserLanguage <chr>, Q4 <chr>, Q5 <chr>,
    #   Q6 <chr>, Q7 <chr>, Q8 <chr>, Q9 <chr>, Q10 <chr>, Q11 <chr>, Q12 <chr>
…
