…
We can make a data frame for all flights that contain information on
their arrival time and departure time by omitting the flights that have
no specified values for these variables and then print the resulting
tibble. Note, we want to use the filter function here and not na.omit
because the omit function is in base R, while the filter function is
meant for tidyverse.

``` r
Has_Arrival_and_Departure <- flights |> 
  filter(!is.na(arr_time), !is.na(dep_time))
print(Has_Arrival_and_Departure)
```

    # A tibble: 328,063 × 19
        year month   day dep_time sched_dep_time dep_delay arr_time sched_arr_time
       <int> <int> <int>    <int>          <int>     <dbl>    <int>          <int>
     1  2013     1     1      517            515         2      830            819
     2  2013     1     1      533            529         4      850            830
     3  2013     1     1      542            540         2      923            850
     4  2013     1     1      544            545        -1     1004           1022
     5  2013     1     1      554            600        -6      812            837
     6  2013     1     1      554            558        -4      740            728
     7  2013     1     1      555            600        -5      913            854
     8  2013     1     1      557            600        -3      709            723
     9  2013     1     1      557            600        -3      838            846
    10  2013     1     1      558            600        -2      753            745
    # ℹ 328,053 more rows
    # ℹ 11 more variables: arr_delay <dbl>, carrier <chr>, flight <int>,
    #   tailnum <chr>, origin <chr>, dest <chr>, air_time <dbl>, distance <dbl>,
    #   hour <dbl>, minute <dbl>, time_hour <dttm>
…
Create a data frame of average flight speeds, based on `air_time` and
`distance`. Make either a histogram or a density plot of the data. If
you like, you may break the data out (e.g. by airline, or some other
variable) in a way that you think makes sense.

To create a data frame of average flight speeds, I can mutate the
flights database to add a column. Then, I can plot these values as a
histogram.

``` r
average_flight_speed = flights |> mutate(flight_speed = distance / air_time)
print(average_flight_speed)
```

    # A tibble: 336,776 × 20
        year month   day dep_time sched_dep_time dep_delay arr_time sched_arr_time
       <int> <int> <int>    <int>          <int>     <dbl>    <int>          <int>
     1  2013     1     1      517            515         2      830            819
     2  2013     1     1      533            529         4      850            830
     3  2013     1     1      542            540         2      923            850
     4  2013     1     1      544            545        -1     1004           1022
     5  2013     1     1      554            600        -6      812            837
     6  2013     1     1      554            558        -4      740            728
     7  2013     1     1      555            600        -5      913            854
     8  2013     1     1      557            600        -3      709            723
     9  2013     1     1      557            600        -3      838            846
    10  2013     1     1      558            600        -2      753            745
    # ℹ 336,766 more rows
    # ℹ 12 more variables: arr_delay <dbl>, carrier <chr>, flight <int>,
    #   tailnum <chr>, origin <chr>, dest <chr>, air_time <dbl>, distance <dbl>,
    #   hour <dbl>, minute <dbl>, time_hour <dttm>, flight_speed <dbl>
…
